11:39:18 140	ERROR:RK_ReadEfuse->RKU_ReadEfuse failed,err=-4!
11:39:18 359	ERROR:RK_ReadVendorInfo->RKU_ReadLBA failed,err=-3!
11:39:18 578	ERROR:RK_WriteVendorInfo->RKU_WriteLBA failed,err=-3!
11:39:18 796	ERROR:RK_WriteVendorInfo->RKU_WriteLBA failed,err=-3!
